Sean’s website - Analysis Walkthrough
…
Code

# FOR EACH OF THE QUESTIONS BELOW, WRITE YOUR WORKING R CODE TO RETURN THE REQUESTED RESULTS
# USE COMMENTS (PREFACED BY THE #) TO ACCOMPANY YOUR CODE TO EXPLAIN WHAT YOU'RE DOING 
# FOR EACH STEP

Code

# 1) The column "for_impeachment" indicates whether the member has publicly called for
# an impeachment inquiry. Filter to return only the ones where the answer is NO.    

impeach %>% 
  filter(for_impeachment == "NO")

# A tibble: 26 × 32
   for_impea…¹ last_…² first…³ middl…⁴ party state distr…⁵ date_exact date_app…⁶
   <chr>       <chr>   <chr>   <chr>   <chr> <chr> <chr>   <date>     <date>    
 1 NO          Allred  Colin   <NA>    D     TX    32      NA         NA        
 2 NO          Brindi… Anthony <NA>    D     NY    22      NA         NA        
 3 NO          Bustos  Cheri   <NA>    D     IL    17      NA         NA        
 4 NO          Cuellar Henry   <NA>    D     TX    28      NA         NA        
 5 NO          Cunnin… Joe     <NA>    D     SC    1       NA         NA        
 6 NO          Davids  Sharice <NA>    D     KS    3       NA         NA        
 7 NO          Gabbard Tulsi   <NA>    D     HI    2       NA         NA        
 8 NO          Golden  Jared   <NA>    D     ME    2       NA         NA        
 9 NO          Gonzal… Vicente <NA>    D     TX    15      NA         NA        
10 NO          Horn    Kendra  <NA>    D     OK    5       NA         NA        
# … with 16 more rows, 23 more variables: date_comb <date>, date_month <dbl>,
#   date_year <dbl>, margin_flag_2018 <chr>, flip_2018 <chr>, house_dist <chr>,
#   keyrace_rating <chr>, median_income <dbl>,
#   median_income_compared_to_national <chr>, median_age <dbl>,
#   median_age_compared_to_national <chr>, pct_nonwhite <dbl>,
#   pct_nonwhite_compared_to_national <chr>, pct_bachelors <dbl>,
#   pct_bachelors_compared_to_national <chr>, rural_pop_above20pct <chr>, …
…
Code

# 4) Filter for only results from September 2019 where a member is a YES for impeachment. 

impeach %>% 
  filter(for_impeachment == "YES") %>% 
  filter(date_year == "2019") %>% 
  filter(date_month == "9")

# A tibble: 76 × 32
   for_impea…¹ last_…² first…³ middl…⁴ party state distr…⁵ date_exact date_app…⁶
   <chr>       <chr>   <chr>   <chr>   <chr> <chr> <chr>   <date>     <date>    
 1 YES         Axne    Cynthia <NA>    D     IA    3       2019-09-24 NA        
 2 YES         Bass    Karen   <NA>    D     CA    37      2019-09-24 NA        
 3 YES         Bera    Ami     <NA>    D     CA    7       2019-09-24 NA        
 4 YES         Bishop  Sanford D.      D     GA    2       2019-09-24 NA        
 5 YES         Cartwr… Matt    <NA>    D     PA    8       2019-09-24 NA        
 6 YES         Case    Ed      <NA>    D     HI    1       2019-09-24 NA        
 7 YES         Castor  Kathy   <NA>    D     FL    14      2019-09-24 NA        
 8 YES         Cisner… Gilbert <NA>    D     CA    39      2019-09-23 NA        
 9 YES         Clyburn James   E.      D     SC    6       2019-09-24 NA        
10 YES         Cooper  Jim     <NA>    D     TN    5       2019-09-24 NA        
# … with 66 more rows, 23 more variables: date_comb <date>, date_month <dbl>,
#   date_year <dbl>, margin_flag_2018 <chr>, flip_2018 <chr>, house_dist <chr>,
#   keyrace_rating <chr>, median_income <dbl>,
#   median_income_compared_to_national <chr>, median_age <dbl>,
#   median_age_compared_to_national <chr>, pct_nonwhite <dbl>,
#   pct_nonwhite_compared_to_national <chr>, pct_bachelors <dbl>,
#   pct_bachelors_compared_to_national <chr>, rural_pop_above20pct <chr>, …

Code

# 5) Filter for only results where a member is a YES for impeachment and is from a district
# where Clinton won more than 70 percent of the vote in 2016 (found in column "clinton_percent")

impeach %>% 
  filter(for_impeachment == "YES") %>% 
  filter(clinton_percent > 70)

# A tibble: 55 × 32
   for_impea…¹ last_…² first…³ middl…⁴ party state distr…⁵ date_exact date_app…⁶
   <chr>       <chr>   <chr>   <chr>   <chr> <chr> <chr>   <date>     <date>    
 1 YES         Barrag… Nanette <NA>    D     CA    44      NA         2019-06-01
 2 YES         Bass    Karen   <NA>    D     CA    37      2019-09-24 NA        
 3 YES         Beyer   Donald  <NA>    D     VA    8       NA         2019-05-01
 4 YES         Boyle   Brendan <NA>    D     PA    2       NA         2019-05-01
 5 YES         Brown   Anthony <NA>    D     MD    4       2019-08-16 NA        
 6 YES         Carden… Tony    <NA>    D     CA    29      2019-06-20 NA        
 7 YES         Clarke  Yvette  D.      D     NY    9       2017-05-17 NA        
 8 YES         Clay    William Lacy    D     MO    1       NA         2019-06-01
 9 YES         Cohen   Steve   <NA>    D     TN    9       NA         2017-11-01
10 YES         Cummin… Elijah  E.      D     MD    7       2019-09-24 NA        
# … with 45 more rows, 23 more variables: date_comb <date>, date_month <dbl>,
#   date_year <dbl>, margin_flag_2018 <chr>, flip_2018 <chr>, house_dist <chr>,
#   keyrace_rating <chr>, median_income <dbl>,
#   median_income_compared_to_national <chr>, median_age <dbl>,
#   median_age_compared_to_national <chr>, pct_nonwhite <dbl>,
#   pct_nonwhite_compared_to_national <chr>, pct_bachelors <dbl>,
#   pct_bachelors_compared_to_national <chr>, rural_pop_above20pct <chr>, …

Code

# 6) Sort the entire dataframe based on the percentage of a district that has a 
# bachelor's degree or higher ("pct_bachelors"), from lowest to highest

impeach %>% 
  arrange(pct_bachelors)

# A tibble: 235 × 32
   for_impea…¹ last_…² first…³ middl…⁴ party state distr…⁵ date_exact date_app…⁶
   <chr>       <chr>   <chr>   <chr>   <chr> <chr> <chr>   <date>     <date>    
 1 YES         Cox     TJ      <NA>    D     CA    21      2019-09-24 NA        
 2 YES         Roybal… Lucille <NA>    D     CA    40      2019-07-23 NA        
 3 YES         Garcia  Sylvia  <NA>    D     TX    29      2019-09-25 NA        
 4 YES         Veasey  Marc    <NA>    D     TX    33      2019-09-24 NA        
 5 YES         Costa   Jim     <NA>    D     CA    16      2019-09-24 NA        
 6 YES         Barrag… Nanette <NA>    D     CA    44      NA         2019-06-01
 7 YES         Serrano Jose    E.      D     NY    15      2019-07-29 NA        
 8 YES         Vargas  Juan    <NA>    D     CA    51      NA         2019-05-01
 9 YES         Gallego Ruben   <NA>    D     AZ    7       2019-07-11 NA        
10 YES         Tlaib   Rashida <NA>    D     MI    13      2019-01-04 NA        
# … with 225 more rows, 23 more variables: date_comb <date>, date_month <dbl>,
#   date_year <dbl>, margin_flag_2018 <chr>, flip_2018 <chr>, house_dist <chr>,
#   keyrace_rating <chr>, median_income <dbl>,
#   median_income_compared_to_national <chr>, median_age <dbl>,
#   median_age_compared_to_national <chr>, pct_nonwhite <dbl>,
#   pct_nonwhite_compared_to_national <chr>, pct_bachelors <dbl>,
#   pct_bachelors_compared_to_national <chr>, rural_pop_above20pct <chr>, …

Code

# 7) Sort the just those who are NO on impeachment based on the percentage of a district that has a 
# bachelor's degree or higher ("pct_bachelors"), from lowest to highest

impeach %>% 
  filter(for_impeachment == "NO") %>% 
  arrange(pct_bachelors)

# A tibble: 26 × 32
   for_impea…¹ last_…² first…³ middl…⁴ party state distr…⁵ date_exact date_app…⁶
   <chr>       <chr>   <chr>   <chr>   <chr> <chr> <chr>   <date>     <date>    
 1 NO          Cuellar Henry   <NA>    D     TX    28      NA         NA        
 2 NO          Bustos  Cheri   <NA>    D     IL    17      NA         NA        
 3 NO          Wilson  Freder… <NA>    D     FL    24      NA         NA        
 4 NO          Gonzal… Vicente <NA>    D     TX    15      NA         NA        
 5 NO          Sewell  Terri   <NA>    D     AL    7       NA         NA        
 6 NO          Lawson  Al      <NA>    D     FL    5       NA         NA        
 7 NO          Johnson Eddie   Bernice D     TX    30      NA         NA        
 8 NO          Horsfo… Steven  <NA>    D     NV    4       NA         NA        
 9 NO          Torres… Xochitl <NA>    D     NM    2       NA         NA        
10 NO          Peters… Collin  C.      D     MN    7       NA         NA        
# … with 16 more rows, 23 more variables: date_comb <date>, date_month <dbl>,
#   date_year <dbl>, margin_flag_2018 <chr>, flip_2018 <chr>, house_dist <chr>,
#   keyrace_rating <chr>, median_income <dbl>,
#   median_income_compared_to_national <chr>, median_age <dbl>,
#   median_age_compared_to_national <chr>, pct_nonwhite <dbl>,
#   pct_nonwhite_compared_to_national <chr>, pct_bachelors <dbl>,
#   pct_bachelors_compared_to_national <chr>, rural_pop_above20pct <chr>, …
…
